{
	"process_id" : 12953,
	"version" : "2021.3.1f1",
	"app_path" : "/home/elian/Unity/Hub/Editor/2021.3.1f1/Editor/Unity",
	"app_contents_path" : "/home/elian/Unity/Hub/Editor/2021.3.1f1/Editor/Data"
}