Library/Bee/artifacts/mvdfrm/UnityEditor.TestRunner.ref.dll_2594DFF003AE8269.mvfrm
Library/Bee/artifacts/mvdfrm/UnityEngine.TestRunner.ref.dll_F1B32A9E2F71E054.mvfrm
Library/Bee/artifacts/mvdfrm/UnityEngine.UI.ref.dll_01958F46DE82E516.mvfrm
Library/Bee/artifacts/mvdfrm/Unity.Plastic.Antlr3.Runtime.dll_AA4F0E0546F33CC0.mvfrm
Library/Bee/artifacts/mvdfrm/Unity.Plastic.Newtonsoft.Json.dll_C101A47305BC5475.mvfrm
Library/Bee/artifacts/mvdfrm/Unity.VisualScripting.IonicZip.dll_7B15FC29D4234C49.mvfrm
Library/Bee/artifacts/mvdfrm/Unity.VisualScripting.YamlDotNet.dll_38DAB62221F63203.mvfrm
Library/Bee/artifacts/mvdfrm/Unity.VisualScripting.Antlr3.Runtime.dll_EA47DD0352BF4222.mvfrm
Library/Bee/artifacts/mvdfrm/UnityEditor.Graphs.dll_5EE46D7CA804E4FC.mvfrm
Library/Bee/artifacts/mvdfrm/UnityEditor.CoreModule.dll_98C126AB2463A4CA.mvfrm
Library/Bee/artifacts/mvdfrm/UnityEditor.DeviceSimulatorModule.dll_B6FECC17CFCA8917.mvfrm
Library/Bee/artifacts/mvdfrm/UnityEditor.DiagnosticsModule.dll_5DA2DCF2E0AC1DA5.mvfrm
Library/Bee/artifacts/mvdfrm/UnityEditor.GraphViewModule.dll_1377C0B90B567EDC.mvfrm
Library/Bee/artifacts/mvdfrm/UnityEditor.PackageManagerUIModule.dll_DD3B946320CC59A6.mvfrm
Library/Bee/artifacts/mvdfrm/UnityEditor.QuickSearchModule.dll_E8B25E00398319FE.mvfrm
Library/Bee/artifacts/mvdfrm/UnityEditor.SceneTemplateModule.dll_C4A29A034F48A43F.mvfrm
Library/Bee/artifacts/mvdfrm/UnityEditor.TextCoreFontEngineModule.dll_F883C54D6CB44B08.mvfrm
Library/Bee/artifacts/mvdfrm/UnityEditor.TextCoreTextEngineModule.dll_406BFBBEFC380426.mvfrm
Library/Bee/artifacts/mvdfrm/UnityEditor.UIBuilderModule.dll_68006DD57E0EF810.mvfrm
Library/Bee/artifacts/mvdfrm/UnityEditor.UIElementsModule.dll_F843B727C0C603C6.mvfrm
Library/Bee/artifacts/mvdfrm/UnityEditor.UIElementsSamplesModule.dll_0181CC5786BBBC07.mvfrm
Library/Bee/artifacts/mvdfrm/UnityEditor.UIServiceModule.dll_A0F27F386746482A.mvfrm
Library/Bee/artifacts/mvdfrm/UnityEditor.UnityConnectModule.dll_38142D74F9C0B880.mvfrm
Library/Bee/artifacts/mvdfrm/UnityEditor.dll_30CDDBB159CA2AAB.mvfrm
Library/Bee/artifacts/mvdfrm/UnityEngine.AIModule.dll_81ABFF370ED5BDDE.mvfrm
Library/Bee/artifacts/mvdfrm/UnityEngine.ARModule.dll_3B1EC43A6BF31CA7.mvfrm
Library/Bee/artifacts/mvdfrm/UnityEngine.AccessibilityModule.dll_F748059A4FBECBDC.mvfrm
Library/Bee/artifacts/mvdfrm/UnityEngine.AndroidJNIModule.dll_768C9FFB09E5729C.mvfrm
Library/Bee/artifacts/mvdfrm/UnityEngine.AnimationModule.dll_E1FD3CE1E5B35382.mvfrm
Library/Bee/artifacts/mvdfrm/UnityEngine.AssetBundleModule.dll_2C9B90F19BE9CEF0.mvfrm
Library/Bee/artifacts/mvdfrm/UnityEngine.AudioModule.dll_37DC2E2F26F103F4.mvfrm
Library/Bee/artifacts/mvdfrm/UnityEngine.ClothModule.dll_9EC48B2A010DE2D8.mvfrm
Library/Bee/artifacts/mvdfrm/UnityEngine.ClusterInputModule.dll_B7B0A28AAB488B46.mvfrm
Library/Bee/artifacts/mvdfrm/UnityEngine.ClusterRendererModule.dll_BCAB8E893F85969B.mvfrm
Library/Bee/artifacts/mvdfrm/UnityEngine.CoreModule.dll_BBE1F9FDCC690FF5.mvfrm
Library/Bee/artifacts/mvdfrm/UnityEngine.CrashReportingModule.dll_D95D00CD3088AEAD.mvfrm
Library/Bee/artifacts/mvdfrm/UnityEngine.DSPGraphModule.dll_0C4CDFC5A7740473.mvfrm
Library/Bee/artifacts/mvdfrm/UnityEngine.DirectorModule.dll_06FB7E5C35133352.mvfrm
Library/Bee/artifacts/mvdfrm/UnityEngine.GIModule.dll_19E84844AA84A5F8.mvfrm
Library/Bee/artifacts/mvdfrm/UnityEngine.GameCenterModule.dll_A0D9EA15D026638D.mvfrm
Library/Bee/artifacts/mvdfrm/UnityEngine.GridModule.dll_995315EBE4BDA5EC.mvfrm
Library/Bee/artifacts/mvdfrm/UnityEngine.HotReloadModule.dll_6345FAE7C0E66F04.mvfrm
Library/Bee/artifacts/mvdfrm/UnityEngine.IMGUIModule.dll_703BCD95ED2297D5.mvfrm
Library/Bee/artifacts/mvdfrm/UnityEngine.ImageConversionModule.dll_289D8C39C1AA4E8F.mvfrm
Library/Bee/artifacts/mvdfrm/UnityEngine.InputLegacyModule.dll_BDE0AC1033DB84E1.mvfrm
Library/Bee/artifacts/mvdfrm/UnityEngine.InputModule.dll_9E51F5DF9D292898.mvfrm
Library/Bee/artifacts/mvdfrm/UnityEngine.JSONSerializeModule.dll_575F8ED64EFA2C66.mvfrm
Library/Bee/artifacts/mvdfrm/UnityEngine.LocalizationModule.dll_F5FD6CDD42C47E3F.mvfrm
Library/Bee/artifacts/mvdfrm/UnityEngine.NVIDIAModule.dll_A9869567EFC20501.mvfrm
Library/Bee/artifacts/mvdfrm/UnityEngine.ParticleSystemModule.dll_2C6F4A199E9A3A3B.mvfrm
Library/Bee/artifacts/mvdfrm/UnityEngine.PerformanceReportingModule.dll_7B2F9DECAA73D9B4.mvfrm
Library/Bee/artifacts/mvdfrm/UnityEngine.Physics2DModule.dll_2EA32CD286B04B17.mvfrm
Library/Bee/artifacts/mvdfrm/UnityEngine.PhysicsModule.dll_4E90086FE5CF7545.mvfrm
Library/Bee/artifacts/mvdfrm/UnityEngine.ProfilerModule.dll_3941B792CE6CBA5F.mvfrm
Library/Bee/artifacts/mvdfrm/UnityEngine.RuntimeInitializeOnLoadManagerInitializerModule.dll_036F6D2367C269E0.mvfrm
Library/Bee/artifacts/mvdfrm/UnityEngine.ScreenCaptureModule.dll_71473C5B636658C8.mvfrm
Library/Bee/artifacts/mvdfrm/UnityEngine.SharedInternalsModule.dll_ACAECB0F38D849DF.mvfrm
Library/Bee/artifacts/mvdfrm/UnityEngine.SpriteMaskModule.dll_8A065CA5F195F907.mvfrm
Library/Bee/artifacts/mvdfrm/UnityEngine.SpriteShapeModule.dll_45FCBE4C518C06FA.mvfrm
Library/Bee/artifacts/mvdfrm/UnityEngine.StreamingModule.dll_96922A32353B0AC0.mvfrm
Library/Bee/artifacts/mvdfrm/UnityEngine.SubstanceModule.dll_733D3E7B808E08CE.mvfrm
Library/Bee/artifacts/mvdfrm/UnityEngine.SubsystemsModule.dll_F4B3C307BFDDE11A.mvfrm
Library/Bee/artifacts/mvdfrm/UnityEngine.TLSModule.dll_D49E6E8D7D976CD9.mvfrm
Library/Bee/artifacts/mvdfrm/UnityEngine.TerrainModule.dll_68D683DEBB8DBE33.mvfrm
Library/Bee/artifacts/mvdfrm/UnityEngine.TerrainPhysicsModule.dll_2CE9F2ECB7DD34C8.mvfrm
Library/Bee/artifacts/mvdfrm/UnityEngine.TextCoreFontEngineModule.dll_76E340A07FB209D3.mvfrm
Library/Bee/artifacts/mvdfrm/UnityEngine.TextCoreTextEngineModule.dll_BECB77120F35C2F1.mvfrm
Library/Bee/artifacts/mvdfrm/UnityEngine.TextRenderingModule.dll_9A86AE661A9DD8BD.mvfrm
Library/Bee/artifacts/mvdfrm/UnityEngine.TilemapModule.dll_07D2EB5FD34A9F3C.mvfrm
Library/Bee/artifacts/mvdfrm/UnityEngine.UIElementsModule.dll_F8F2246FC30A1D11.mvfrm
Library/Bee/artifacts/mvdfrm/UnityEngine.UIElementsNativeModule.dll_27B548F89244C9C8.mvfrm
Library/Bee/artifacts/mvdfrm/UnityEngine.UIModule.dll_7D1F9D646B1CC38A.mvfrm
Library/Bee/artifacts/mvdfrm/UnityEngine.UNETModule.dll_4E8841E71978056E.mvfrm
Library/Bee/artifacts/mvdfrm/UnityEngine.UmbraModule.dll_B2B0DA47B417AF67.mvfrm
Library/Bee/artifacts/mvdfrm/UnityEngine.UnityAnalyticsModule.dll_4C0EBAE34AC18C37.mvfrm
Library/Bee/artifacts/mvdfrm/UnityEngine.UnityConnectModule.dll_2573B183F448B92B.mvfrm
Library/Bee/artifacts/mvdfrm/UnityEngine.UnityCurlModule.dll_1519DE1355C7456F.mvfrm
Library/Bee/artifacts/mvdfrm/UnityEngine.UnityTestProtocolModule.dll_BD448249E0B7115D.mvfrm
Library/Bee/artifacts/mvdfrm/UnityEngine.UnityWebRequestAssetBundleModule.dll_638C0CB1AA7D8048.mvfrm
Library/Bee/artifacts/mvdfrm/UnityEngine.UnityWebRequestAudioModule.dll_F32BF1CB30DEA44C.mvfrm
Library/Bee/artifacts/mvdfrm/UnityEngine.UnityWebRequestModule.dll_3A3C93E3CC9EE90E.mvfrm
Library/Bee/artifacts/mvdfrm/UnityEngine.UnityWebRequestTextureModule.dll_EADC123A7D8DFBA1.mvfrm
Library/Bee/artifacts/mvdfrm/UnityEngine.UnityWebRequestWWWModule.dll_898DBC6DFEF57F5D.mvfrm
Library/Bee/artifacts/mvdfrm/UnityEngine.VFXModule.dll_557D06FC5404D646.mvfrm
Library/Bee/artifacts/mvdfrm/UnityEngine.VRModule.dll_CFF1C3EA0CD74902.mvfrm
Library/Bee/artifacts/mvdfrm/UnityEngine.VehiclesModule.dll_7EBE77DBAF3D02ED.mvfrm
Library/Bee/artifacts/mvdfrm/UnityEngine.VideoModule.dll_5CE5B299E9831F99.mvfrm
Library/Bee/artifacts/mvdfrm/UnityEngine.VirtualTexturingModule.dll_4C41FD676AF34A53.mvfrm
Library/Bee/artifacts/mvdfrm/UnityEngine.WindModule.dll_3230D5265D9F8E5E.mvfrm
Library/Bee/artifacts/mvdfrm/UnityEngine.XRModule.dll_02B086EE96119660.mvfrm
Library/Bee/artifacts/mvdfrm/UnityEngine.dll_63722289B83DB790.mvfrm
Library/Bee/artifacts/mvdfrm/UnityEditor.LinuxStandalone.Extensions.dll_2DA0394CE0360F26.mvfrm